<?xml version="1.0" encoding="UTF-8"?>
<svg version="1.1" xmlns="http://www.w3.org/2000/svg" xmlns:xlink="http://www.w3.org/1999/xlink">
    <defs>
        <symbol viewBox="0 0 388.227 388.227" id="list">
            <path d="M194.113,190.505c36.691,0,66.438-36.129,66.438-80.695c0-44.567-9.768-80.696-66.438-80.696
              c-56.672,0-66.438,36.129-66.438,80.696C127.676,154.376,157.422,190.505,194.113,190.505z"/>
            <path d="M319.455,310.459c-1.229-77.637-11.369-99.759-88.959-113.763c0,0-10.924,13.917-36.381,13.917
              c-25.457,0-36.379-13.917-36.379-13.917c-76.744,13.85-87.502,35.645-88.916,111.24c-0.115,6.173-0.168,6.497-0.189,5.78
              c0.004,1.343,0.01,3.826,0.01,8.157c0,0,18.473,37.239,125.475,37.239s125.477-37.239,125.477-37.239
              c0-2.782,0.002-4.718,0.004-6.033C319.576,316.283,319.533,315.424,319.455,310.459z"/>
            <path d="M286.313,176.097c29.801,0,53.959-29.343,53.959-65.539c0-36.197-7.932-65.54-53.959-65.54
              c-7.742,0-14.404,0.833-20.135,2.388c10.631,19.598,12.088,43.402,12.088,62.403c0,21.514-5.832,42.054-16.572,59.061
              C269.076,173.48,277.441,176.097,286.313,176.097z"/>
            <path d="M388.111,273.521c-1-63.055-9.234-81.022-72.252-92.396c0,0-8.871,11.304-29.547,11.304c-0.855,0-1.684-0.026-2.5-0.063
              c13.137,5.923,25.088,14.17,33.889,26.238c15.215,20.863,18.713,48.889,19.435,90.062c42.397-8.378,51.086-25.873,51.086-25.873
              c0-2.28,0-3.844,0.004-4.913C388.209,278.256,388.174,277.582,388.111,273.521z"/>
            <path d="M101.912,176.097c8.873,0,17.236-2.617,24.621-7.226c-10.74-17.007-16.572-37.547-16.572-59.061
              c0-19.002,1.457-42.806,12.086-62.403c-5.73-1.555-12.391-2.388-20.135-2.388c-46.027,0-53.957,29.343-53.957,65.54
              C47.955,146.754,72.113,176.097,101.912,176.097z"/>
            <path d="M104.412,192.365c-0.814,0.037-1.643,0.063-2.5,0.063c-20.676,0-29.547-11.304-29.547-11.304
              c-63.016,11.374-71.252,29.34-72.25,92.396c-0.065,4.062-0.098,4.735-0.115,4.358c0.002,1.069,0.004,2.633,0.004,4.913
              c0,0,8.69,17.495,51.084,25.873c0.725-41.172,4.221-69.198,19.438-90.062C79.326,206.536,91.275,198.288,104.412,192.365z"/>
        </symbol>

        <symbol viewBox="0 0 325.082 325.082" id="camera">
            <path d="M309.045,73.456H230.42L212.154,27.43h-99.232L94.619,73.456H15.994C7.178,73.456,0,80.619,0,89.469v192.16
              c0,8.851,7.178,16.023,15.994,16.023h293.051c8.854,0,16.037-7.173,16.037-16.023V89.469
              C325.082,80.619,317.898,73.456,309.045,73.456z M162.518,255.476c-37.68,0-68.207-30.553-68.207-68.237
              c0-37.677,30.527-68.228,68.207-68.228c37.695,0,68.256,30.551,68.256,68.228C230.773,224.923,200.213,255.476,162.518,255.476z"/>
            <path d="M162.518,146.558c-21.516,0-38.969,17.466-38.969,38.987c0,21.541,17.453,38.995,38.969,38.995
              c21.557,0,39.016-17.454,39.016-38.995C201.533,164.023,184.074,146.558,162.518,146.558z"/>
        </symbol>

        <symbol viewBox="0 0 321.736 321.736" id="load">
            <path d="M0,14.067v293.602h321.736V14.067H0z M285.037,50.768v175.867l-56.88-65.767l-50.467,43.338l-70.958-83.11L36.7,216.436
              V50.768H285.037z"/>
            <path d="M202.05,127.211c14.19,0,25.692-11.499,25.692-25.67c0-14.188-11.502-25.69-25.692-25.69
              c-14.188,0-25.691,11.502-25.691,25.69C176.358,115.712,187.861,127.211,202.05,127.211z"/>
        </symbol>

        <symbol viewBox="0 0 325.902 325.902" id="settings">
          <path d="M289.486,169.775l36.416-6.423l-9.98-56.672l-36.406,6.415c-4.02-9.392-9.123-18.203-15.186-26.271l23.762-28.326
            l-44.074-36.992l-23.77,28.315c-8.941-4.547-18.504-8.058-28.523-10.388V2.472h-57.549v36.961
            c-10.004,2.33-19.572,5.841-28.521,10.388L81.908,21.507l-44.098,36.99l23.783,28.325c-6.061,8.069-11.188,16.881-15.195,26.273
            l-36.404-6.415L0,163.352l36.439,6.423c0.557,10.344,2.344,20.35,5.23,29.887l-32,18.48l28.766,49.841l32.049-18.498
            c6.918,7.389,14.725,13.949,23.219,19.507l-12.648,34.75l54.088,19.688l12.643-34.756c4.973,0.592,10.031,0.906,15.178,0.906
            c5.125,0,10.184-0.314,15.158-0.906l12.65,34.755l54.074-19.685l-12.646-34.753c8.518-5.558,16.318-12.117,23.232-19.506
            l32.043,18.498l28.773-49.84l-32.016-18.48C287.121,190.124,288.93,180.118,289.486,169.775z M108.582,162.868
            c0-30.032,24.351-54.373,54.381-54.373c30.021,0,54.367,24.341,54.367,54.373c0,30.027-24.346,54.366-54.367,54.366
            C132.934,217.234,108.582,192.895,108.582,162.868z"/>
          </symbol>

        <symbol viewBox="0 0 301.691 301.691" id="info">
            <polygon points="119.151,0 129.6,218.406 172.06,218.406 182.54,0 	"/>
            <rect x="130.563" y="261.168" width="40.525" height="40.523" />
        </symbol>

        <symbol viewBox="0 0 255 255" id="no">
          <rect x="40%" y="0" width="20%" height="100%"/>
          <rect x="0" y="40%" width="100%" height="20%"/>
        </symbol>

        <symbol viewBox="0 0 342.357 342.357" id="yes">
            <polygon points="290.04,33.286 118.861,204.427 52.32,137.907 0,190.226 118.862,309.071 342.357,85.606 "/>
        </symbol>
        
        <symbol viewBox="0 0 500 500" id="more">
            <rect x="46%" y="0"  rx="20" width="10%" height="100%"/>
            <rect x="0" y="46%"  rx="20" width="100%" height="10%"/>
        </symbol>

        <symbol viewBox="0 0 36 36" id="menu">
            <path d="M0,19.994h36v-3.988H0V19.994z M0,32h36v-3.988H0V32z M0,4v3.988h36V4H0z"/>
        </symbol>
    </defs>
</svg>



